{
  "1": {
    ".wildbunch": "0xaa9E5Ade68C9C3Ea967Dc5dde731fd1f797152Cb"
  },
  "10": {
    ".wagmi": "0xC3E8922657686EC63eaaa9FC1Fe06826802e7e0f",
    ".l2": "0x9A7657d1593032C75d70950707870c3cC7ca45DC",
    ".op": "0xC16aCAdf99E4540E6f4E6Da816fd6D2A2C6E1d4F",
    ".optimism": "0xBca24d86e4Ad1e011278FaEFc4fF191a731411EC",
    ".spartan": "0x3490C9817C45A2a394b11A3807f58a8325235aE0"
  },
  "19": {
    ".sgb": "0xBDACF94dDCAB51c39c2dD50BffEe60Bb8021949a"
  },
  "56": {
    ".safu": "0xBDACF94dDCAB51c39c2dD50BffEe60Bb8021949a",
    ".huwa": "0xeFBE0b46649B7A0F1e1D49CCa98aD9CF6bcFB096"
  },
  "69": {
    ".optitest": "0xAc63b035e63d280c408549f5AFA64be7469470de",
    ".l2test": "0xB5B8AF8199777d471c0320BC11022433df6D100e",
    ".flexiop": "0xaE01D45b16Ca3A47670050934482c32B19e34b87"
  },
  "77": {
    ".testdao": "0x110cc3f64cdf8ffadc785dfa53906bcff76b3846"
  },
  "100": {
    ".gnosis": "0xC3E8922657686EC63eaaa9FC1Fe06826802e7e0f",
    ".xdai": "0xbca24d86e4ad1e011278faefc4ff191a731411ec",
    ".bright": "0x3490c9817c45a2a394b11a3807f58a8325235ae0"
  },
  "137": {
    ".poly": "0x70Ac07C50131b7bb2c8Bd9466D8d2add30B7759f",
    ".ape": "0x794a8390D94E32b086908D2bA9D66300aA163C62",
    ".degen": "0xC4999A3e91ef87c9EC5d8186D02B77F9A62458b9",
    ".web3": "0xb6Cf2874588d0fdFAf9d1b5E254ee6C49110C68B",
    ".klima": "0xe8b97542A433e7eCc7bB791872af04DF02A1a6E4",
    ".polygon": "0xa450bc33d0940d25fB0961c592fb440Fa63ABE03"
  },
  "80001": {
    ".testsafu": "0x755F461d6a5854203b9B30C76f680356cC67556D",
    ".newflexi": "0xd3CEdCfAa00de70DB408528351665c55E1fFA603",
    ".freytest": "0x71C60ebce37cd6ee27807D5285b1acf9752e17Ee",
    ".testpoly": "0x4fd04c33E692B967F663B75A1976a1671E93B4dd",
    ".testangel": "0xBF113092d7ceabB5b891C4B232C910CDF2153AC5"
  },
  "42161": {
    ".arbi": "0xe97456E0fB121F65422F43ccbd4A07a0e269B534",
    ".arbitrum": "0x337EB5061943ECd247649d58D35Dbab0b40D67E0",
    ".smol": "0xE0d972817e94c5FF9BDc49a63d8927A0bA833E4f",
    ".punkangel": "0xcC66213645474a7B61BAf95330D01e50789eaF4b"
  },
  "421611": {
    ".smoltest": "0x0eB60B697428597CE58650173eFEd2F32ADD7E93",
    ".twbtest": "0xEEAEED736cc6A6e68CC2F62be19Cf7E06ad9E94A",
    ".testhuwa": "0x49651e70df13b8fd5684B0b82b1b3D7Cdc8cF80f",
    ".arbitest": "0xC6a628b1FF1aD4e304bEeACAff915559786deA2e",
    ".angeltest": "0x61c567b26eB1B1965A1bD49febE1C1997237C519"
  },
  "1313161555": {
    ".testrora": "0x4087fb91a1fbdef05761c02714335d232a2bf3a1"
  }
}